[gd_scene load_steps=8 format=2]

[ext_resource path="res://Assets/Textures/light_particle.png" type="Texture" id=1]

[sub_resource type="CanvasItemMaterial" id=1]
blend_mode = 1

[sub_resource type="Gradient" id=2]
offsets = PoolRealArray( 0.354839, 0.752688 )
colors = PoolColorArray( 0.984314, 0.709804, 0.678431, 1, 1, 0.0588235, 0, 1 )

[sub_resource type="GradientTexture" id=3]
gradient = SubResource( 2 )

[sub_resource type="Curve" id=4]
_data = [ Vector2( 0, 1 ), 0.0, 0.0, 0, 0, Vector2( 1, 0.609091 ), 0.0, 0.0, 0, 0 ]

[sub_resource type="CurveTexture" id=5]
curve = SubResource( 4 )

[sub_resource type="ParticlesMaterial" id=6]
emission_shape = 1
emission_sphere_radius = 1.0
flag_disable_z = true
spread = 30.0
gravity = Vector3( 0, 0, 0 )
initial_velocity = 600.0
angular_velocity = 100.0
orbit_velocity = 0.0
orbit_velocity_random = 0.0
scale = 2.0
scale_random = 1.0
scale_curve = SubResource( 5 )
color_ramp = SubResource( 3 )

[node name="CrashParticles" type="Node2D"]

[node name="Particles2D" type="Particles2D" parent="."]
material = SubResource( 1 )
emitting = false
amount = 32
lifetime = 0.5
one_shot = true
explosiveness = 0.95
randomness = 0.5
process_material = SubResource( 6 )
texture = ExtResource( 1 )
__meta__ = {
"_edit_lock_": true
}
